Homework 3
…
names(glass_data) <- c("Id", "RI", "Na", "Mg", "Al", "Si", "K", "ca", "Ba",
"Fe", "Type_of_glass")
glass_data |>
   mutate(Type_of_glass = 
            ifelse(Type_of_glass == 1, "building_windows_float_processed", 
            ifelse(Type_of_glass == 2, "building_windows_non_float_processed", 
            ifelse(Type_of_glass == 3, "vehicle_windows_float_processed", 
            ifelse(Type_of_glass == 4, "vehicle_windows_non_float_processed", 
            ifelse(Type_of_glass == 5, "containers", 
            ifelse(Type_of_glass == 6, "tableware", 
            ifelse(Type_of_glass == 7, "headlamps", NA)))))))) |>
  filter(Fe < 0.2 & Type_of_glass %in% c("tableware", "headlamps"))

# A tibble: 38 × 11
      Id    RI    Na    Mg    Al    Si     K    ca    Ba    Fe Type_of_glass
   <dbl> <dbl> <dbl> <dbl> <dbl> <dbl> <dbl> <dbl> <dbl> <dbl> <chr>        
 1   177  1.52  14    2.39  1.56  72.4  0     9.57  0        0 tableware    
 2   178  1.52  13.8  2.41  1.19  72.8  0     9.77  0        0 tableware    
 3   179  1.52  14.5  2.24  1.62  72.4  0     9.26  0        0 tableware    
 4   180  1.52  14.1  2.19  1.66  72.7  0     9.32  0        0 tableware    
 5   181  1.51  14.4  1.74  1.54  74.6  0     7.59  0        0 tableware    
 6   182  1.52  15.0  0.78  1.74  72.5  0     9.95  0        0 tableware    
 7   183  1.52  14.2  0     2.09  72.7  0    10.9   0        0 tableware    
 8   184  1.52  14.6  0     0.56  73.5  0    11.2   0        0 tableware    
 9   185  1.51  17.4  0     0.34  75.4  0     6.65  0        0 tableware    
10   186  1.51  13.7  3.2   1.81  72.8  1.76  5.43  1.19     0 headlamps    
# ℹ 28 more rows
…
Rows: 1484 Columns: 10
── Column specification ────────────────────────────────────────────────────────

chr (2): seq_name, class
dbl (8): mcg, gvh, alm, mit, erl, pox, vac, nuc

ℹ Use `spec()` to retrieve the full column specification for this data.
ℹ Specify the column types or set `show_col_types = FALSE` to quiet this message.

yeast_data |>
  select(-"seq_name", -"nuc") |>
  mutate(across(where(is.numeric), list(mean = mean, median = median), .names = "{.col}_{.fn}"))

# A tibble: 1,484 × 22
     mcg   gvh   alm   mit   erl   pox   vac class mcg_mean mcg_median gvh_mean
   <dbl> <dbl> <dbl> <dbl> <dbl> <dbl> <dbl> <chr>    <dbl>      <dbl>    <dbl>
 1  0.58  0.61  0.47  0.13   0.5   0    0.48 MIT      0.500       0.49    0.500
 2  0.43  0.67  0.48  0.27   0.5   0    0.53 MIT      0.500       0.49    0.500
 3  0.64  0.62  0.49  0.15   0.5   0    0.53 MIT      0.500       0.49    0.500
 4  0.58  0.44  0.57  0.13   0.5   0    0.54 NUC      0.500       0.49    0.500
 5  0.42  0.44  0.48  0.54   0.5   0    0.48 MIT      0.500       0.49    0.500
 6  0.51  0.4   0.56  0.17   0.5   0.5  0.49 CYT      0.500       0.49    0.500
 7  0.5   0.54  0.48  0.65   0.5   0    0.53 MIT      0.500       0.49    0.500
 8  0.48  0.45  0.59  0.2    0.5   0    0.58 NUC      0.500       0.49    0.500
 9  0.55  0.5   0.66  0.36   0.5   0    0.49 MIT      0.500       0.49    0.500
10  0.4   0.39  0.6   0.15   0.5   0    0.58 CYT      0.500       0.49    0.500
# ℹ 1,474 more rows
# ℹ 11 more variables: gvh_median <dbl>, alm_mean <dbl>, alm_median <dbl>,
#   mit_mean <dbl>, mit_median <dbl>, erl_mean <dbl>, erl_median <dbl>,
#   pox_mean <dbl>, pox_median <dbl>, vac_mean <dbl>, vac_median <dbl>

Task 2 Cont: Combining Excel and Delimited Data

Import the downloaded excel file of white wine data.

library(readxl)
white_wine_data <- read_excel("/Users/emily/Documents/ST558/Week 3/white-wine.xlsx", sheet = excel_sheets("/Users/emily/Documents/ST558/Week 3/white-wine.xlsx")[1])
white_wine_data

# A tibble: 4,898 × 12
   `fixed acidity` `volatile acidity` `citric acid` `residual sugar` chlorides
             <dbl>              <dbl>         <dbl>            <dbl>     <dbl>
 1               7               0.27          0.36             20.7     0.045
 2              63               0.3           0.34              1.6     0.049
 3              81               0.28          0.4               6.9     0.05 
 4              72               0.23          0.32              8.5     0.058
 5              72               0.23          0.32              8.5     0.058
 6              81               0.28          0.4               6.9     0.05 
 7              62               0.32          0.16              7       0.045
 8               7               0.27          0.36             20.7     0.045
 9              63               0.3           0.34              1.6     0.049
10              81               0.22          0.43              1.5     0.044
# ℹ 4,888 more rows
# ℹ 7 more variables: `free sulfur dioxide` <dbl>,
#   `total sulfur dioxide` <dbl>, density <dbl>, pH <dbl>, sulphates <dbl>,
#   alcohol <dbl>, quality <dbl>
…
new_col_names <- white_wine_data_2$Variables
white_wine_data |>
  rename_with(~ new_col_names)

# A tibble: 4,898 × 12
   fixed_acidity volatile_acidity citric_acid residual_sugar chlorides
           <dbl>            <dbl>       <dbl>          <dbl>     <dbl>
 1             7             0.27        0.36           20.7     0.045
 2            63             0.3         0.34            1.6     0.049
 3            81             0.28        0.4             6.9     0.05 
 4            72             0.23        0.32            8.5     0.058
 5            72             0.23        0.32            8.5     0.058
 6            81             0.28        0.4             6.9     0.05 
 7            62             0.32        0.16            7       0.045
 8             7             0.27        0.36           20.7     0.045
 9            63             0.3         0.34            1.6     0.049
10            81             0.22        0.43            1.5     0.044
# ℹ 4,888 more rows
# ℹ 7 more variables: free_sulfur_dioxide <dbl>, total_sulfur_dioxide <dbl>,
#   density <dbl>, pH <dbl>, sulphates <dbl>, alcohol <dbl>, quality <dbl>
…
Combine two data sets into one data set.

combined_wine <- dplyr::bind_rows(white_wine_data_edit, red_wine_data_edit)

6-9. Start a chain on your new combined data object to filter the data to only look at high-quality wines (quality > 6.5) and wines that have a reasonable alcohol value (alcohol < 132). Continue your chain to now sort the data from highest quality to lowest. Continue your chain to select only the variables that contain acid, the alcohol variable, the type variable, and the quality variable. Continue your chain to add the mean and standard deviation of the alcohol variable to the data set for each setting of the quality variable.

combined_wine |>
  filter(quality > 6.5 & alcohol < 132) |>
  arrange(desc(quality)) |>
  select(ends_with("acid") | ends_with("acidity"), "alcohol", "Type_of_Wine", "quality") |>
  group_by(quality) |>
  mutate(alcohol_mean = mean(alcohol), alcohol_sd = sd(alcohol))

# A tibble: 1,206 × 8
# Groups:   quality [3]
   citric_acid fixed_acidity volatile_acidity alcohol Type_of_Wine quality
         <dbl>         <dbl>            <dbl>   <dbl> <chr>          <dbl>
 1        0.45            91             0.27     104 White              9
 2        0.29            66             0.36     124 White              9
 3        0.36            74             0.24     125 White              9
 4        0.34            69             0.36     127 White              9
 5        0.49            71             0.26     129 White              9
 6        0.48            62             0.66     128 White              8
 7        0.48            62             0.66     128 White              8
 8        0.42            68             0.26     105 White              8
 9        0.31            67             0.23     107 White              8
10        0.31            67             0.23     107 White              8
# ℹ 1,196 more rows
# ℹ 2 more variables: alcohol_mean <dbl>, alcohol_sd <dbl>
…
